// Jest Snapshot v1, https://goo.gl/fbAQLP

exports[`The alert reducer should store an error message when ORCID verification failed 1`] = `
Object {
  "error": "Arbitrary error",
}
`;

exports[`The alert reducer should store an error message when ORCID verification was aborted 1`] = `
Object {
  "error": "Please approve access to your ORCID to link it.",
}
`;

exports[`The alert reducer should store arbitrary messages indicating completion 1`] = `
Object {
  "success": "Arbitrary message",
}
`;

exports[`The completeSomething action creator should dispatch a completeSomething action immediately 1`] = `
Object {
  "payload": Object {
    "successMessage": "Arbitrary success message",
  },
  "type": "flockademic/alert/completeSomething",
}
`;

exports[`The completeSomething action creator should mark completeSomething messages as ignored after 5000 ms 1`] = `
Object {
  "payload": Object {
    "successMessage": "Arbitrary success message",
  },
  "type": "flockademic/alert/ignoreCompleteSomething",
}
`;
